{
  "id": "ID000000",
  "priority": "LOW",
  "subject":"Party time",
  "to": [
    {
      "email_address":"tim@smith",
      "display_name": "Tim"
    },
    {
      "email_address":"tom@turner.org",
      "display_name": "Tom"
    }
  ],
  "cc": [
    {
      "email_address":"meg@macdonald.org",
      "display_name": "Meg"
    }
  ],
  "from" : {
    "email_address":"jens@dietrich.com",
    "display_name": "Jens"
  },
  "body": "You have just been invited to a party !"
}