fitnesse-20111025.jar	fitnesse-20190716.jar	-DOM (-)
aerogear-android-push-1.0.0.jar	aerogear-android-push-4.0.0.jar	+DOM (+)
forklift-replay-1.0.jar	forklift-replay-3.0.jar	+DOM (+)
model-1.0.0.jar	model-6.0.0.jar	-DATABIND (-)
ne4Spring-1.0.jar	ne4Spring-999.0.0.0.jar	+DOM (+)
sswf_2.11-0.0.jar	sswf_2.11-5.0.jar	+DOM (+)
DataCleaner-monitor-services-3.0.jar	DataCleaner-monitor-services-5.0.jar	+DATABIND (+)
molgenis-data-annotators-1.0.0.jar	molgenis-data-annotators-6.0.0.jar	-DATABIND (-)
alkun-1.0.jar	alkun-4.0.0.jar	+DOM,+DATABIND (+)
alchemist-swingui-0.0.0.jar	alchemist-swingui-9.0.0.jar	+DATABIND (+)
spring-batch-core-1.0.0.FINAL.jar	spring-batch-core-4.0.0.RELEASE.jar	+DATABIND (+)
alchemist-maps-0.0.0.jar	alchemist-maps-9.0.0.jar	-DATABIND (-)
st-core-framework-1.0.jar	st-core-framework-6.0.jar	+DOM
cloudsim-plus-1.0.jar	cloudsim-plus-5.0.0.jar	+DATABIND (+)
steam-api-1.0.0.jar	steam-api-5.0.jar	+DATABIND (+)
jmxtrans-core-251.jar	jmxtrans-core-270.jar	-DATABIND,+DOM
infinispan-cli-client-6.0.0.Final.jar	infinispan-cli-client-10.0.0.Final.jar	+PULL,+DATABIND (+)
spring-data-couchbase-1.0.0.RELEASE.jar	spring-data-couchbase-3.0.0.RELEASE.jar	+DATABIND
kripton-1.0.0.jar	kripton-6.0.0.jar	+PULL (+)
jbpm-flow-builder-6.0.0.Final.jar	jbpm-flow-builder-7.0.0.Final.jar	+DATABIND (+)
wildfly-messaging-activemq-10.0.0.Final.jar	wildfly-messaging-activemq-18.0.0.Final.jar	+DOM (+)
auth0-servlet-1.0.jar	auth0-servlet-3.0.0.jar	-DATABIND (-)
jspare-core-1.0.0.jar	jspare-core-3.0.0.jar	-DATABIND (-)
jslack-1.0.0.jar	jslack-3.0.0.jar	-DATABIND (-)
proxy-3.0.jar	proxy-5.0.jar	-PULL,-PATHQUERY
hub-common-rest-1.0.0.jar	hub-common-rest-12.0.0.jar	-DATABIND,+DOM
integration-bdio-1.0.0.jar	integration-bdio-18.0.0.jar	+PULL,+DATABIND (+)
cdap-security-3.0.0.jar	cdap-security-5.0.0.jar	+PULL,+DATABIND (+)
visallo-core-2.0.0.jar	visallo-core-4.0.0.jar	+DATABIND
molgenis-data-validation-2.0.0.jar	molgenis-data-validation-7.0.0-RELEASE.jar	+DOM (+)
spring-data-rest-webmvc-1.0.0.RELEASE.jar	spring-data-rest-webmvc-3.0.0.RELEASE.jar	+DOM,+DATABIND (+)
elasticsearch-maven-plugin-2.0.jar	elasticsearch-maven-plugin-6.0.jar	+DATABIND (+)
com.liferay.push.notifications.sender.apple-1.0.0.jar	com.liferay.push.notifications.sender.apple-3.0.0.jar	-DOM,-PULL,-DATABIND (-)
http-client-1.0.0.RELEASE.jar	http-client-4.0.0.jar	+DOM (+)
spring-integration-core-2.0.0.RELEASE.jar	spring-integration-core-5.0.0.RELEASE.jar	+DOM,+PULL,+DATABIND (+)
com.liferay.sync.security-1.0.0.jar	com.liferay.sync.security-4.0.0.jar	-DOM,-DATABIND (-)
hapi-fhir-android-1.0.jar	hapi-fhir-android-4.0.0.jar	-DOM,-PULL (-)
object-store-impl-1.0.0.jar	object-store-impl-10.0.0.jar	+DOM (+)
minio-1.0.0.jar	minio-6.0.0.jar	+DATABIND (+)
xwiki-commons-velocity-4.0.jar	xwiki-commons-velocity-11.0.jar	+DATABIND (+)
reflections-2.0.0.Final.jar	reflections-4.0.0.Final.jar	-DATABIND (-)
denominator-cli-1.0.0.jar	denominator-cli-4.0.0.jar	+DATABIND (+)
http4k-format-gson-1.0.0.jar	http4k-format-gson-3.0.0.jar	+DATABIND
omise-java-1.0.0.jar	omise-java-3.0.0.jar	-DATABIND (-)
jasperreports-4.0.0.jar	jasperreports-6.0.0.jar	+DOM,+DATABIND (+)
keycloak-server-spi-private-3.0.0.Final.jar	keycloak-server-spi-private-7.0.0.jar	+DOM (+)
nakadi-producer-spring-boot-starter-1.0.jar	nakadi-producer-spring-boot-starter-20.0.0.jar	-DATABIND (-)
qualinsight-plugins-sonarqube-smell-plugin-2.0.0.jar	qualinsight-plugins-sonarqube-smell-plugin-4.0.0.jar	+DATABIND (+)
pom-manipulation-ext-1.0.jar	pom-manipulation-ext-3.0.jar	+DOM,+PULL,+DATABIND,+PATHQUERY (+)
sswf_2.10-1.0.jar	sswf_2.10-5.0.jar	+DOM (+)
com.liferay.portal.store.s3-1.0.0.jar	com.liferay.portal.store.s3-4.0.0.jar	-DOM,-PULL,-DATABIND,-PATHQUERY (-)
dependency-check-utils-2.0.0.jar	dependency-check-utils-5.0.0.jar	+DATABIND (+)
sirius-db-1.0.jar	sirius-db-7.0.jar	+DOM (+)
runner-1.0.jar	runner-3.0.0.jar	-PULL
openshift-client-2.0.0.jar	openshift-client-4.0.0.jar	+DATABIND (+)
notification-portlet-api-2.0.0.jar	notification-portlet-api-4.0.0.jar	+PULL (+)
websockets-rxjava-2.0.0.jar	websockets-rxjava-4.0.0.jar	-DATABIND (-)
commons-rest-security-1.0.0.jar	commons-rest-security-3.0.0.jar	+DATABIND (+)
angel-ps-mllib-1.0.0.jar	angel-ps-mllib-3.0.0.jar	+PULL,+DATABIND (+)
nflow-rest-api-1.0.0.jar	nflow-rest-api-3.0.0.jar	+DOM (+)
corda-jackson-1.0.0.jar	corda-jackson-4.0.jar	-PULL
uima-ducc-orchestrator-1.0.0.jar	uima-ducc-orchestrator-3.0.0.jar	+DATABIND (+)
keycloak-core-1.0-final.jar	keycloak-core-7.0.0.jar	+DATABIND (+)
gitlab-api-2.0.0.jar	gitlab-api-4.0.0.jar	+DATABIND (+)
wudaosoft-weixin-sdk-1.0.0.jar	wudaosoft-weixin-sdk-3.0.0.jar	-DOM (-)
voucherify-java-sdk-1.0.0.jar	voucherify-java-sdk-9.0.0.jar	+DOM,+DATABIND (+)
hapi-fhir-jpaserver-base-1.0.jar	hapi-fhir-jpaserver-base-4.0.0.jar	+DOM,+DATABIND (+)
spring-security-web-3.0.0.RELEASE.jar	spring-security-web-5.0.0.RELEASE.jar	+DOM,+DATABIND (+)
pagerduty-client-1.0.0.jar	pagerduty-client-3.0.0.jar	+DOM
depgraph-maven-plugin-1.0.0.jar	depgraph-maven-plugin-3.0.0.jar	+DATABIND (+)
bimface-java-sdk-1.0.0.jar	bimface-java-sdk-3.0.0.jar	+DATABIND (+)
genie-client-1.0.0.jar	genie-client-3.0.0.jar	+DOM (+)
jsurbtc-1.0.0.jar	jsurbtc-4.0.0.jar	-DATABIND (-)
denominator-dynect-1.0.0.jar	denominator-dynect-4.0.0.jar	+DOM,+PULL,+DATABIND (+)
spring-data-solr-1.0.0.RELEASE.jar	spring-data-solr-4.0.0.RELEASE.jar	+DOM (+)
org.json-20130212.jar	org.json-20161124.jar	+DOM,+PATHQUERY (+)
spoon-core-3.0.jar	spoon-core-7.0.0.jar	+DATABIND (+)
keycloak-adapter-core-1.0-final.jar	keycloak-adapter-core-7.0.0.jar	+DOM,+DATABIND,+PATHQUERY (+)
org.wso2.carbon.apimgt.usage.client-2.0.0.jar	org.wso2.carbon.apimgt.usage.client-6.0.0.jar	+DATABIND (+)
java-properties-to-json-2.0.jar	java-properties-to-json-5.0.0.jar	+DOM (+)
org.wso2.carbon.apimgt.impl-2.0.0.jar	org.wso2.carbon.apimgt.impl-6.0.0.jar	+DATABIND (+)
checkstyle-addons-java6-2.0.0.jar	checkstyle-addons-java6-4.0.0.jar	+DATABIND (+)
uima-ducc-common-1.0.0.jar	uima-ducc-common-3.0.0.jar	+PULL
uima-ducc-web-1.0.0.jar	uima-ducc-web-3.0.0.jar	+DATABIND (+)
spring-security-core-2.0.0.jar	spring-security-core-5.0.0.RELEASE.jar	+DOM,+DATABIND (+)
selenese-runner-java-1.0.0.jar	selenese-runner-java-3.0.0.jar	+DATABIND (+)
com.liferay.calevent.importer-1.0.0.jar	com.liferay.calevent.importer-3.0.0.jar	-DOM (-)
appframework-1.0.0.jar	appframework-3.0.0.jar	+DATABIND (+)
iextrading4j-all-1.0.0.jar	iextrading4j-all-3.0.0.jar	-DATABIND (-)
json-20.jar	json-20190722.jar	+DOM,+PATHQUERY (+)
genie-common-1.0.0.jar	genie-common-3.0.0.jar	+DATABIND (+)
sigopt-java-1.0.0.jar	sigopt-java-6.0.0.jar	-DOM
json-xml-1.0.jar	json-xml-4.0.jar	+PULL (+)
sdklib-22.0.jar	sdklib-25.0.0.jar	+DATABIND (+)
sirius-biz-1.0.jar	sirius-biz-9.0.jar	+DATABIND
sam-server-4.0.jar	sam-server-6.0.0.jar	+DOM (+)
graylog2-server-1.0.0.jar	graylog2-server-3.0.0.jar	+PULL
cdap-etl-core-3.0.0.jar	cdap-etl-core-5.0.0.jar	+DATABIND (+)
rapidoid-x-demo-3.0.0.jar	rapidoid-x-demo-5.0.0.jar	-DOM,-PULL,-DATABIND,-PATHQUERY (-)
business-core-2.0.0.jar	business-core-4.0.0.jar	+PULL (+)
cma-sdk-1.0.0.jar	cma-sdk-3.0.0.jar	+DATABIND (+)
sava-1.0.0.jar	sava-6.0.0.jar	-DOM,-PULL,-DATABIND,-PATHQUERY (-)
cdap-master-3.0.0.jar	cdap-master-5.0.0.jar	+DATABIND (+)
itunes-search-1.0.jar	itunes-search-3.0.jar	+DATABIND (+)
json-retrotranslated-20151123.jar	json-retrotranslated-20171018.jar	+PATHQUERY
com.liferay.commerce.initializer.util-1.0.0.jar	com.liferay.commerce.initializer.util-4.0.0.jar	+PULL (+)
lightblue-client-http-2.0.0.jar	lightblue-client-http-5.0.0.jar	-DOM (-)
direct-msg-monitor-1.0.jar	direct-msg-monitor-6.0.jar	+DATABIND (+)
metawidget-all-2.0.jar	metawidget-all-4.0.jar	+DOM (+)
solr-analytics-5.0.0.jar	solr-analytics-8.0.0.jar	+DATABIND (+)
confluence-metadata-5.0.0.jar	confluence-metadata-8.0.0.jar	+DOM,+PULL,+DATABIND (+)
infinispan-server-core-5.0.0.FINAL.jar	infinispan-server-core-10.0.0.Final.jar	+DOM,+DATABIND (+)
boxdb-maven-plugin-1.0.jar	boxdb-maven-plugin-3.0.jar	+DOM (+)
java-sdk-1.0.jar	java-sdk-10.0.0.jar	-DATABIND (-)
com.liferay.portal.workflow.kaleo.service-1.0.0.jar	com.liferay.portal.workflow.kaleo.service-4.0.0.jar	-DOM (-)
maven-confluence-core-3.0.0.jar	maven-confluence-core-6.0.jar	+DOM,+DATABIND (+)
keycloak-wildfly-server-subsystem-2.0.0.Final.jar	keycloak-wildfly-server-subsystem-7.0.0.jar	+DOM (+)
infinispan-embedded-query-7.0.0.Final.jar	infinispan-embedded-query-9.0.0.Final.jar	+DOM,+PULL,+DATABIND (+)
molgenis-jobs-2.0.0.jar	molgenis-jobs-7.0.0-RELEASE.jar	+DATABIND (+)
agraph-java-client-1.0.0.jar	agraph-java-client-3.0.0.jar	+PULL (+)
sonar-batch-2.0.jar	sonar-batch-5.0.jar	+DOM,+DATABIND (+)
itemsense-client-1.0.jar	itemsense-client-5.0.0.jar	-DATABIND (-)
hapi-fhir-structures-hl7org-dstu2-2.0.jar	hapi-fhir-structures-hl7org-dstu2-4.0.0.jar	-DATABIND (-)
swagger-maven-plugin-1.0.jar	swagger-maven-plugin-3.0.0.jar	-DATABIND,+DOM
rapidoid-demo-2.0.0.jar	rapidoid-demo-5.0.0.jar	-DOM,-PULL,-DATABIND,-PATHQUERY (-)
booster-catalog-service-1.jar	booster-catalog-service-61.jar	-DOM (-)
java-telegram-bot-api-1.0.0.jar	java-telegram-bot-api-4.0.0.jar	+DATABIND (+)
hapi-fhir-base-1.0.jar	hapi-fhir-base-4.0.0.jar	-DOM,+DATABIND
arangodb-java-driver-3.0.0.jar	arangodb-java-driver-6.0.0.jar	-DOM,-DATABIND (-)
sakai-kernel-private-11.0.jar	sakai-kernel-private-19.0.jar	+DATABIND (+)
requests-2.0.0.jar	requests-5.0.0.jar	+DATABIND (+)
infinispan-cli-interpreter-7.0.0.Final.jar	infinispan-cli-interpreter-10.0.0.Final.jar	+DATABIND (+)
elasticsearch-langfield-2.0.0.jar	elasticsearch-langfield-6.0.0.jar	+DATABIND (+)
client-2.0.0.jar	client-6.0.0.jar	-DATABIND (-)
spring-web-1.0.jar	spring-web-5.0.0.RELEASE.jar	+PULL,+DATABIND (+)
sshd-shell-spring-boot-starter-1.0.jar	sshd-shell-spring-boot-starter-4.0.jar	+DATABIND (+)
feign-gson-3.0.0.jar	feign-gson-8.0.0.jar	-PULL
axon-core-1.0.jar	axon-core-3.0.jar	+DOM (+)
dspace-api-3.0.jar	dspace-api-6.0.jar	+DATABIND (+)
hapi-fhir-structures-dstu3-2.0.jar	hapi-fhir-structures-dstu3-4.0.0.jar	-DOM,-DATABIND (-)
jfinal-2.0.jar	jfinal-4.0.jar	+DATABIND (+)
achilles-core-2.0.0.jar	achilles-core-6.0.0.jar	+DATABIND (+)
infoarchive-sip-sdk-core-1.0.0.jar	infoarchive-sip-sdk-core-5.0.0.jar	+DATABIND (+)
sprockets-0.0.0.jar	sprockets-4.0.0.jar	-PULL,+DATABIND
kripton-core-2.0.0.jar	kripton-core-6.0.0.jar	-PULL (-)
socialposts.v1-1.0.0.jar	socialposts.v1-5.0.0.jar	-DOM,-PULL,-DATABIND (-)
iextrading4j-samples-1.0.0.jar	iextrading4j-samples-3.0.0.jar	-DATABIND (-)
emvc-1.0.0.jar	emvc-3.0.0.jar	+DATABIND (+)
lint-checks-23.0.0.jar	lint-checks-25.0.0.jar	+DOM (+)
jsonkt-1.0.jar	jsonkt-4.0.jar	-DATABIND (-)
nominatim-api-1.0.jar	nominatim-api-3.0.jar	+DATABIND (+)
dependency-check-core-1.0.0.jar	dependency-check-core-5.0.0.jar	+DOM,+PULL,+DATABIND (+)
cometd-java-common-2.0.0.jar	cometd-java-common-4.0.0.jar	+DATABIND (+)
yoke-1.0.0.jar	yoke-3.0.0.jar	+DATABIND (+)
launchkey-sdk-1.0.0.jar	launchkey-sdk-4.0.0.jar	+DATABIND (+)
molgenis-core-ui-1.0.0.jar	molgenis-core-ui-7.0.0-RELEASE.jar	+DATABIND (+)
client-java-1.0.0.jar	client-java-5.0.0.jar	+DOM,+PULL,+DATABIND (+)
mockserver-core-2.0.jar	mockserver-core-5.0.0.jar	+DOM,+PULL,+DATABIND (+)
org.wso2.carbon.apimgt.gateway-2.0.0.jar	org.wso2.carbon.apimgt.gateway-6.0.0.jar	+DATABIND (+)
sonar-scanner-protocol-6.0.jar	sonar-scanner-protocol-8.0.jar	-DATABIND (-)
infinispan-client-hotrod-5.0.0.FINAL.jar	infinispan-client-hotrod-10.0.0.Final.jar	+PULL,+DATABIND (+)
datanucleus-json-2.0.0-release.jar	datanucleus-json-5.0.0-release.jar	-DOM (-)
xdev-server-ui-1.0.0.jar	xdev-server-ui-4.0.0.jar	+DATABIND (+)
jackson-3.0.0.jar	jackson-8.0.0.jar	+PULL (+)
molgenis-core-1.0.0.jar	molgenis-core-7.0.0-RELEASE.jar	-DATABIND (-)
uima-ducc-cli-1.0.0.jar	uima-ducc-cli-3.0.0.jar	-DATABIND (-)
gtfs-lib-3.0.0.jar	gtfs-lib-5.0.0.jar	+DOM
keycloak-services-1.0-final.jar	keycloak-services-7.0.0.jar	+DOM,+PULL (+)
jzonbie-3.0.jar	jzonbie-5.0.0.jar	-DATABIND (-)
kor-common-2.0.jar	kor-common-3.0.0.jar	+DATABIND (+)
denominator-clouddns-2.0.0.jar	denominator-clouddns-4.0.0.jar	+DOM
orientdb-graphdb-1.0.jar	orientdb-graphdb-3.0.0.jar	+PULL (+)
jmxtrans-247.jar	jmxtrans-270.jar	-DATABIND (-)
manifest-merger-22.0.jar	manifest-merger-25.0.0.jar	+DATABIND (+)
nflow-tests-1.0.0.jar	nflow-tests-3.0.0.jar	+DOM,+PULL,+DATABIND,+PATHQUERY (+)
hive-exec-1.0.0.jar	hive-exec-3.0.0.jar	+DATABIND
eve-esi-1.0.0.jar	eve-esi-3.0.0.jar	+PULL,+DATABIND (+)
launchdarkly-client-2.0.0.jar	launchdarkly-client-4.0.0.jar	-DOM,-PULL
jerry-core-1.0.0.jar	jerry-core-3.0.0.jar	+DATABIND (+)
selenium-jupiter-1.0.0.jar	selenium-jupiter-3.0.0.jar	+DATABIND (+)
wicketstuff-gmap3-6.0.0.jar	wicketstuff-gmap3-8.0.0.jar	+DATABIND (+)
simple-spring-memcached-2.0.0.jar	simple-spring-memcached-4.0.0.jar	+DATABIND (+)
yak-dev-domain-2.0.0.jar	yak-dev-domain-4.0.0.jar	-DATABIND (-)
commons-rest-client-1.0.0.jar	commons-rest-client-3.0.0.jar	+DATABIND (+)
aliyun-java-sdk-batchcompute-2.0.0.jar	aliyun-java-sdk-batchcompute-6.0.0.jar	+DATABIND (+)
distelli-webserver-2.0.0.jar	distelli-webserver-10.0.0.jar	+DATABIND
test-utils-1.0.0.jar	test-utils-8.0.0.jar	+DOM (+)
docker-java-1.0.0.jar	docker-java-3.0.0.jar	+DOM
infinispan-remote-query-server-6.0.0.Final.jar	infinispan-remote-query-server-10.0.0.Final.jar	+DATABIND (+)
rox-java-core-2.0.0.jar	rox-java-core-4.0.0.jar	-DOM (-)
scalajack_2.11-2.0.0.jar	scalajack_2.11-4.0.jar	-PULL (-)
jbpm-workitems-6.0.0.Final.jar	jbpm-workitems-7.0.0.Final.jar	+DATABIND (+)
wildfly-client-all-9.0.0.Final.jar	wildfly-client-all-18.0.0.Final.jar	+DOM,+PULL,+PATHQUERY (+)
molgenis-data-1.0.0.jar	molgenis-data-7.0.0-RELEASE.jar	+DATABIND (+)
account-manager-ws-1.0.0.jar	account-manager-ws-4.0.0.jar	+DOM (+)
sonar-scanner-engine-6.0.jar	sonar-scanner-engine-8.0.jar	+DATABIND
keycloak-model-jpa-1.0-final.jar	keycloak-model-jpa-7.0.0.jar	+DATABIND (+)
ion-1.0.0.jar	ion-2.0.0.jar	+DOM,+PULL,+DATABIND (+)
metafacture-core-0.0.0.jar	metafacture-core-4.0.0.jar	+DATABIND (+)
line-bot-api-client-1.0.0.jar	line-bot-api-client-3.0.0.jar	+DATABIND (+)
grex-1.0.0.jar	grex-3.0.0.jar	-DATABIND (-)
optimus-2.0.0.jar	optimus-3.0.jar	+DATABIND
ntaf-fitnesse-20090817.jar	ntaf-fitnesse-20101108.jar	+DOM (+)
sdk-common-1.0.0.jar	sdk-common-25.0.0.jar	+PULL,+DATABIND (+)
autoload-cache-2.0.jar	autoload-cache-7.0.0.jar	+DATABIND (+)
dualcache-2.0.0.jar	dualcache-3.0.0.jar	-DATABIND (-)
flicker-2.0.0.jar	flicker-4.0.jar	+DATABIND (+)
molgenis-scripts-2.0.0.jar	molgenis-scripts-7.0.0-RELEASE.jar	+DATABIND (+)
perimeterx-sdk-1.0.jar	perimeterx-sdk-6.0.0.jar	+DOM (+)
force-wsc-22.0.0.jar	force-wsc-47.0.0.jar	-DATABIND (-)
checkstyle-addons-2.0.0.jar	checkstyle-addons-6.0.0.jar	+DATABIND (+)
commons-crypto-1.0.0.jar	commons-crypto-3.0.0.jar	+DATABIND (+)
seerapi-client-java-1.0.jar	seerapi-client-java-3.0.jar	+DATABIND (+)
spring-jms-2.0.jar	spring-jms-5.0.0.RELEASE.jar	+DATABIND (+)
